{
  "mappings": {
    "users": {
      "properties": {
        "timestamp": {
          "type":   "date",
          "format": "yyyy-MM-dd'T'HH:mm:ss"
        }
      }
    }
  }
}



previousdayindex,currentdayindex,previousSeventhdayindex

PUT /currentdayindex

POST /_aliases
{
    "actions": [
        { "remove": { "index": "previousdayindex", "alias": "current_index" }},
        { "remove": { "index": "previousSeventhdayindex", "alias": "lastseven_index" }},
    ]
}



{
    "query": {
        "bool" : {
                     "must" : [
                        {"term" : {"rr" : 4} },
                        {"term" : {"rr" : 4} }
                      ]
                      ,
                    "filter":{
                        "range": {  
                            "timestamp": {
                                "gte":"2011-08-22T21:22:58", 
                                "lte":"2017-08-23T00:22:58"
                            }
                        }
        
                    }   
                }
    },
        "aggs" : { 
                "popular_colors" : { 
                    "terms" : { 
                      "field" : "userId"
                    }
                }
            }
    
}

{
    "query": {
        "bool" : {
                     "must" : [
                        {"term" : {"rr" : 4} },
                        {"term" : {"rr" : 4} }
                      ]
                      ,
                    "filter":{
                        "range": {  
                            "timestamp": {
                                "gte":"2011-08-22T21:22:58", 
                                "lte":"2017-08-23T00:22:58"
                            }
                        }
        
                    }   
                }
    },
        "aggs" : { 
                "popular_colors" : { 
                    "terms" : { 
                      "field" : "userId"
                    }
                }
            }
    
}

{
    "query": {
        "bool" : {
                     "must" : [
                        {"term" : {"extension" : "searchprivacy"} }
                      ]
                        
                }
    }
}


{
    "query": {
        "terms": {
          "_routing": [ "admin1" ] 
        },
        "bool" : {
                     "must" : [
                     ]
                      
                     
                }
    },
        "aggs" : { 
                "popular_colors" : { 
                    "terms" : { 
                      "field" : "timestamp"
                    }
                }
            }
    
}


<Response: [<Result(app/users/AVa1o6yQJdwCpOIOMp75): {u'timestamp': u'2016-08-22T21:23:37', u'userId': u'admin', ...}>, <Result(app/users/AVa5tc_zTpO2nB0oGRTp): {u'timestamp': u'2016-08-23T16:21:55', u'userId': u'admin', ...}>, <Result(app/users/AVa5TxdzTpO2nB0oGRTe): {u'timestamp': u'2016-08-23T14:29:43', u'userId': u'admin', ...}>, <Result(app/users/AVa1oxKPJdwCpOIOMp74): {u'timestamp': u'2016-08-22T21:22:58', u'userId': u'admin', ...}>, <Result(app/users/AVa5u36RTpO2nB0oGRTr): {u'timestamp': u'2016-08-23T16:28:07', u'userId': u'admin', ...}>]>


curl -XGET 'http://localhost:9200/_search' -d '{
     “query” : {
         “match” : { “user_id” : “4” }
    }
}'


curl -XGET 'http://localhost:9200/_search' -d '{
         "query" : {
             "match" : { "user_id" : "4" }
         }
     }'
}'

curl -XGET “http://localhost:9200/_search" -d “{
     ‘query’ : {
        ‘match’ : { ‘user_id’ : ‘4’ }
     }
}


