[
  {
    "myName" : "ad_click",
    "druidName": "ad_click",
    "displayName" : "Ad Click",
    "enabled" : true,
    "color" : "lightblue"
  },
  {
    "myName" : "page_view",
    "druidName" : "page_view",
    "displayName" : "Page View",
    "enabled" : true,
    "color" : "#e6e6e6"
  },
  {
    "myName" : "keyword",
    "druidName" : "keyword",
    "displayName" : "Keyword",
    "enabled" : true,
    "color" : "#e6ffcc"
  },
  {
    "myName" : "pageview_snap",
    "druidName" : "pageview_snap",
    "displayName" : "Snap Pageview",
    "enabled" : true,
    "color" : "#e6e6e6"
  },
  {
    "myName" : "keyword_click",
    "druidName" : "keyword_click",
    "displayName" : "Keyword Click",
    "enabled" : true,
    "color" : "#e6e6e6"
  },
  {
    "myName" : "adclick_audit",
    "druidName" : "adclick_audit",
    "displayName" : "AdClick Audit",
    "enabled" : true,
    "color" : "#f2d9e6"
  },
  {
    "myName" : "prebid_rendered_ad",
    "druidName" : "prebid_rendered_ad",
    "displayName" : "Rendered Ad",
    "enabled" : true,
    "color" : "#ffffcc"
  },
  {
    "myName" : "prebid_auction_decision",
    "druidName" : "prebid_auction_decision",
    "displayName" : "Auction Decision",
    "enabled" : true,
    "color" : "#daff33"
  },
  {
    "myName" : "prebid_provider_response",
    "druidName" : "prebid_provider_response",
    "displayName" : "PreBid Provider Response",
    "enabled" : true,
    "color" : "#ffbb33"
  },
  {
    "myName" : "noop",
    "druidName" : "noop",
    "displayName" : "Post Aggregation",
    "enabled" : true,
    "color" : "#e6eeff"
  },
  {
    "myName" : "apps_searchprivacy",
    "druidName" : "apps_searchprivacy",
    "displayName" : "Apps",
    "enabled" : true,
    "color" : "#e6e6e6"
  },
  {
    "myName" : "apps_stats_audit",
    "druidName" : "apps_stats_audit",
    "displayName" : "Apps",
    "enabled" : true,
    "color" : "#e6e6e6"
  },
  {
    "myName" : "page_view_audit",
    "druidName" : "page_view_audit",
    "displayName" : "Page View Audit",
    "enabled" : true,
    "color" : "#e6e6e6"
  },
  {
    "myName" : "page_view_erpm",
    "druidName" : "page_view_erpm",
    "displayName" : "Page View Erpm",
    "enabled" : true,
    "color" : "#e6e6e6"
  },
  {
    "myName" : "ad_details",
    "druidName": "ad_details",
    "displayName" : "Ad Detail",
    "enabled" : true,
    "color" : "lightblue"
  },
  {
    "myName" : "ad_detail_ra_ebay",
    "druidName": "ad_detail_ra_ebay",
    "displayName" : "PLA",
    "enabled" : true,
    "color" : "lightgreen"
  }
]
