{
  "All": {
    "dimensions": [
      "none",
      "day",
      "hour",
      "abtest",
      "addesc",
      "adepth",
      "adpos",
      "adtype",
      "advar",
      "proid",
      "adtag",
      "prvaccid",
      "adtitle",
      "addisplayurl",
      "basis",
      "basis2",
      "bidderid",
      "billedcost",
      "bucket",
      "canonicalurlhash",
      "channelId",
      "channelName",
      "country",
      "countrygroup",
      "state",
      "city",
      "metro",
      "customer",
      "cid",
      "devicetype",
      "deviceid",
      "browserid",
      "osid",
      "ddepth",
      "domain",
      "firstdispktd",
      "fmwpage",
      "ipaddress",
      "ismonetise",
      "kwd",
      "kid",
      "ktd",
      "bktd",
      "keywordPos",
      "ksu",
      "landingpagetypeid",
      "lineitemid",
      "multiplyfactor",
      "oesearchterm",
      "originalreferer",
      "partner",
      "portfolio",
      "pid",
      "providerapiid",
      "progroup",
      "referingdomain",
      "referer",
      "KeywordTestData1",
      "KeywordTestData2",
      "KeywordTestData3",
      "KeywordTestData4",
      "KeywordTestData5",
      "KeywordTestData6",
      "KeywordTestData7",
      "KeywordTestData8",
      "KeywordTestData9",
      "KeywordTestData10",
      "KeywordTestData11",
      "KeywordTestData12",
      "KeywordTestData13",
      "KeywordTestData14",
      "KeywordTestData15",
      "KeywordTestData16",
      "KeywordTestData17",
      "KeywordTestData18",
      "KeywordTestData19",
      "KeywordTestData20",
      "KeywordTestData21",
      "KeywordTestData22",
      "KeywordTestData23",
      "KeywordTestData24",
      "KeywordTestData25",
      "KeywordTestData26",
      "KeywordTestData27",
      "KeywordTestData28",
      "KeywordTestData29",
      "KeywordTestData30",
      "KeywordTagData1",
      "KeywordTagData2",
      "KeywordTagData3",
      "KeywordTagData4",
      "KeywordTagData5",
      "KeywordTagData6",
      "KeywordTagData7",
      "KeywordTagData8",
      "serptemp",
      "sourcetag",
      "subbidder",
      "ssmproaccid",
      "ssmproapiid",
      "ssmyahoomkt",
      "template",
      "templatesz",
      "url",
      "strippedurl",
      "useragentgroupid",
      "visitorid",
      "yahookwt",
      "yahoomkt",
      "1stprovider",
      "2ndprovider",
      "1stprovidername",
      "2ndprovidername",
      "abtesthb",
      "bidbuckethb",
      "creativesize",
      "prspt",
      "dfpdiv",
      "dfppos",
      "dfpdiv",
      "sessiondepth",
      "batchcount",
      "auctiontype",
      "statusname",
      "googletimeoutdelay",
      "googlefunctiondelay",
      "advid",
      "advname"
    ],
    "metrics": [
      {"name": "pageimps", "isDefault": true},
      {"name": "pageclicks", "isDefault": true},
      {"name": "adclicks", "isDefault": true},
      {"name": "keywordcount", "isDefault": false},
      {"name": "keywordimpressions", "isDefault": false},
      {"name": "netbidunaudited", "isDefault": true},
      {"name": "adclicksaudited", "isDefault": false},
      {"name": "netrevaudited", "isDefault": true},
      {"name": "netbidaudited", "isDefault": false},
      {"name": "adclickcount", "isDefault": false},
      {"name": "adclickauditcount", "isDefault": false},
      {"name": "pageviewcount", "isDefault": false},
      {"name": "snappageviewcount", "isDefault": false},
      {"name": "snappageviewview", "isDefault": false},
      {"name": "pageviewview", "isDefault": false},
      {"name": "pageviewclick", "isDefault": false},
      {"name": "keywordclickcount", "isDefault": false},
      {"name": "noop_l2a", "isDefault": false},
      {"name": "noop_l2r", "isDefault": false},
      {"name": "noop_r2a", "isDefault": false},
      {"name": "noop_rpc", "isDefault": false},
      {"name": "noop_rpm", "isDefault": false},
      {"name": "noop_cpm", "isDefault": false},
      {"name": "noop_r2a_audited", "isDefault": false},
      {"name": "noop_l2a_audited", "isDefault": false},
      {"name": "snapnoop_l2a", "isDefault": false},
      {"name": "snapnoop_l2r", "isDefault": false},
      {"name": "snapnoop_r2a", "isDefault": false},
      {"name": "snapnoop_rpm", "isDefault": false},
      {"name": "keywordnoop_l2a", "isDefault": false},
      {"name": "keywordnoop_l2r", "isDefault": false},
      {"name": "keywordnoop_rpm", "isDefault": false},
      {"name": "AuditedBilledCost", "isDefault": false},
      {"name": "BilledCost", "isDefault": false},
      {"name": "renderedadcount", "isDefault": false},
      {"name": "renderedadbid", "isDefault": false},
      {"name": "renderedadscbid", "isDefault": false},
      {"name": "renderedadbdp", "isDefault": false},
      {"name": "renderedadclsprc", "isDefault": false},
      {"name": "renderedadogbdp", "isDefault": false},
      {"name": "renderedadscogbdp", "isDefault": false},
      {"name": "renderedadscbdp", "isDefault": false},
      {"name": "renderedaddfpbid", "isDefault": false},
      {"name": "auctionadcount", "isDefault": false},
      {"name": "auctionadbid", "isDefault": false},
      {"name": "auctionadscbid", "isDefault": false},
      {"name": "auctionadbdp", "isDefault": false},
      {"name": "auctionadclsprc", "isDefault": false},
      {"name": "auctionadogbdp", "isDefault": false},
      {"name": "auctionadscogbdp", "isDefault": false},
      {"name": "auctionadscbdp", "isDefault": false},
      {"name": "auctionaddfpbid", "isDefault": false},
      {"name": "prebidbidprice", "isDefault": false},
      {"name": "prebidbdporiginal", "isDefault": false},
      {"name": "prebidcustomerbidprice", "isDefault": false},
      {"name": "prebidcount", "isDefault": false}
    ],
    "defaultDimension" : "none",
    "displayName" : "All"
  },
  "Cm": {
    "dimensions": [
      "none",
      "day",
      "hour",
      "abtest",
      "adtag",
      "bidderid",
      "bucket",
      "country",
      "countrygroup",
      "customer",
      "domain",
      "lineitemid",
      "partner",
      "portfolio",
      "pid",
      "sourcetag",
      "subbidder",
      "template",
      "url",
      "strippedurl"
    ],
    "metrics": [
      {"name": "snappageviewview", "isDefault": true},
      {"name": "keywordclickcount", "isDefault": true},
      {"name": "adclicks", "isDefault": true},
      {"name": "netbidunaudited", "isDefault": true},
      {"name": "adclicksaudited", "isDefault": false},
      {"name": "netrevaudited", "isDefault": true},
      {"name": "netbidaudited", "isDefault": false},
      {"name": "adclickcount", "isDefault": false},
      {"name": "adclickauditcount", "isDefault": false},
      {"name": "snappageviewcount", "isDefault": false},
      {"name": "snapnoop_l2a", "isDefault": false},
      {"name": "snapnoop_l2r", "isDefault": false},
      {"name": "snapnoop_r2a", "isDefault": false},
      {"name": "noop_rpc", "isDefault": false},
      {"name": "snapnoop_rpm", "isDefault": false},
      {"name": "AuditedBilledCost", "isDefault": false},
      {"name": "BilledCost", "isDefault": false}
    ],
    "defaultDimension" : "none",
    "displayName" : "CM"
  },
  "Keyword": {
    "dimensions": [
      "none",
      "day",
      "hour",
      "advar",
      "adtag",
      "basis",
      "basis2",
      "bidderid",
      "billedcost",
      "bucket",
      "canonicalurlhash",
      "channelId",
      "country",
      "countrygroup",
      "customer",
      "domain",
      "kwd",
      "kid",
      "ktd",
      "bktd",
      "keywordPos",
      "ksu",
      "lineitemid",
      "partner",
      "portfolio",
      "pid",
      "referingdomain",
      "referer",
      "KeywordTestData1",
      "KeywordTestData2",
      "KeywordTestData3",
      "KeywordTestData4",
      "KeywordTestData5",
      "KeywordTestData6",
      "KeywordTestData7",
      "KeywordTestData8",
      "KeywordTestData9",
      "KeywordTestData10",
      "KeywordTestData11",
      "KeywordTestData12",
      "KeywordTestData13",
      "KeywordTestData14",
      "KeywordTestData15",
      "KeywordTestData16",
      "KeywordTestData17",
      "KeywordTestData18",
      "KeywordTestData19",
      "KeywordTestData20",
      "KeywordTestData21",
      "KeywordTestData22",
      "KeywordTestData23",
      "KeywordTestData24",
      "KeywordTestData25",
      "KeywordTestData26",
      "KeywordTestData27",
      "KeywordTestData28",
      "KeywordTestData29",
      "KeywordTestData30",
      "KeywordTagData1",
      "KeywordTagData2",
      "KeywordTagData3",
      "KeywordTagData4",
      "KeywordTagData5",
      "KeywordTagData6",
      "KeywordTagData7",
      "KeywordTagData8",
      "subbidder",
      "template",
      "url",
      "strippedurl"
    ],
    "metrics": [
      {"name": "keywordimpressions", "isDefault": true},
      {"name": "keywordcount", "isDefault": false},
      {"name": "pageimps", "isDefault": false},
      {"name": "pageclicks", "isDefault": true},
      {"name": "adclicks", "isDefault": true},
      {"name": "netbidunaudited", "isDefault": true},
      {"name": "adclicksaudited", "isDefault": false},
      {"name": "netrevaudited", "isDefault": true},
      {"name": "netbidaudited", "isDefault": false},
      {"name": "adclickcount", "isDefault": false},
      {"name": "adclickauditcount", "isDefault": false},
      {"name": "pageviewcount", "isDefault": false},
      {"name": "snappageviewcount", "isDefault": false},
      {"name": "keywordnoop_l2a", "isDefault": false},
      {"name": "keywordnoop_l2r", "isDefault": false},
      {"name": "keywordnoop_rpm", "isDefault": false},
      {"name": "noop_l2a", "isDefault": false},
      {"name": "noop_l2r", "isDefault": false},
      {"name": "noop_r2a", "isDefault": false},
      {"name": "noop_rpc", "isDefault": false},
      {"name": "noop_rpm", "isDefault": false}
    ],
    "defaultDimension" : "none",
    "displayName" : "Keyword"
  },
  "Header Bidder": {
    "dimensions": [
      "none",
      "day",
      "hour",
      "adtag",
      "prvaccid",
      "bidderid",
      "country",
      "countrygroup",
      "customer",
      "cid",
      "deviceid",
      "browserid",
      "osid",
      "domain",
      "ipaddress",
      "partner",
      "referer",
      "subbidder",
      "url",
      "strippedurl",
      "useragentgroupid",
      "1stprovider",
      "2ndprovider",
      "1stprovidername",
      "2ndprovidername",
      "abtesthb",
      "bidbuckethb",
      "creativesize",
      "prspt",
      "dfpdiv",
      "dfppos",
      "dfpdiv",
      "sessiondepth",
      "batchcount",
      "auctiontype",
      "statusname",
      "googletimeoutdelay",
      "googlefunctiondelay",
      "advid",
      "advname"
    ],
    "metrics": [
      {"name": "renderedadcount", "isDefault": true},
      {"name": "renderedadbid", "isDefault": false},
      {"name": "renderedadscbid", "isDefault": false},
      {"name": "renderedadbdp", "isDefault": false},
      {"name": "renderedadclsprc", "isDefault": true},
      {"name": "renderedadogbdp", "isDefault": false},
      {"name": "renderedadscogbdp", "isDefault": false},
      {"name": "renderedadscbdp", "isDefault": false},
      {"name": "renderedaddfpbid", "isDefault": true},
      {"name": "auctionadcount", "isDefault": false},
      {"name": "auctionadbid", "isDefault": false},
      {"name": "auctionadscbid", "isDefault": false},
      {"name": "auctionadbdp", "isDefault": false},
      {"name": "auctionadclsprc", "isDefault": false},
      {"name": "auctionadogbdp", "isDefault": false},
      {"name": "auctionadscogbdp", "isDefault": false},
      {"name": "auctionadscbdp", "isDefault": false},
      {"name": "auctionaddfpbid", "isDefault": false},
      {"name": "prebidbidprice", "isDefault": false},
      {"name": "prebidbdporiginal", "isDefault": false},
      {"name": "prebidcustomerbidprice", "isDefault": false},
      {"name": "prebidcount", "isDefault": false}
    ],
    "defaultDimension" : "none",
    "displayName" : "Header Bidder"
  },
  "Apps" : {
    "dimensions" : [
      "none",
      "day",
      "hour",
      "apps_aff_id",
      "apps_browser_name",
      "apps_chrome_version",
      "apps_cid",
      "apps_customer",
      "apps_device",
      "apps_extension",
      "apps_t3",
      "apps_t1",
      "apps_t2",
      "apps_t4",
      "apps_t5",
      "apps_type_tag_id",
      "apps_landing_template"
    ],
    "metrics" : [
      {"name":"apps_searchprivacycount","isDefault": false},
      {"name":"apps_distinctusers","isDefault": false},
      {"name":"apps_eventvalue","isDefault": true},
      {"name":"apps_landingimpressions","isDefault": true},
      {"name":"apps_uniqueinstall","isDefault": true},
      {"name":"apps_unistalls","isDefault": true},
      {"name":"apps_searches","isDefault": true},
      {"name":"apps_yahoo_searches","isDefault": false},
      {"name":"apps_yahoo_click","isDefault": false},
      {"name":"apps_gross_revenue","isDefault": true},
      {"name":"apps_adclickcount","isDefault": true},
      {"name":"apps_activeusers","isDefault": true},
      {"name":"apps_skipoffer","isDefault": false},
      {"name":"apps_installclick","isDefault": false},
      {"name":"apps_installcancel","isDefault": false},
      {"name":"apps_alreadyinstalled","isDefault": false},
      {"name":"apps_clicktabclose","isDefault": false},
      {"name":"apps_installfailed","isDefault": false},
      {"name":"apps_churnuser","isDefault": false},
      {"name":"apps_tosclick","isDefault": false},
      {"name":"apps_ppclick","isDefault": false},
      {"name":"apps_errorevent","isDefault": false},
      {"name":"apps_toggle","isDefault": false},
      {"name":"apps_activesearchers","isDefault": false},
      {"name":"noop_s2a","isDefault": false},
      {"name":"noop_s2i","isDefault": false}
    ],
    "defaultDimension" : "none",
    "displayName" : "Apps"
  },
  "Erpm" : {
    "dimensions": [
      "none",
      "day",
      "eprm_partner_id",
      "eprm_customer_id",
      "eprm_portfolio_id",
      "eprm_domain_name",
      "eprm_template_id",
      "eprm_country_code",
      "eprm_page_type_id",
      "eprm_publisher_url",
      "eprm_creative_id",
      "eprm_lineitem_id",
      "eprm_template_size_id",
      "eprm_bucket_id",
      "eprm_bidder_id",
      "eprm_http_referer",
      "eprm_sub_bidder_id",
      "eprm_adepth",
      "eprm_canonical_url_hash",
      "eprm_ddepth",
      "eprm_refering_domain",
      "eprm_browser_id",
      "eprm_device_id",
      "eprm_os_id",
      "eprm_consider_for_erpm",
      "eprm_is_rtbs_enabled",
      "eprm_l1_url_level",
      "eprm_l1_device_level",
      "eprm_l2_url_level",
      "eprm_l2_device_level",
      "eprm_l3_dfp_level",
      "eprm_l4_url_level",
      "eprm_l4_device_level",
      "eprm_l5_url_level"
    ],
    "metrics": [
      {"name": "erpm_multiply_factor", "isDefault": true},
      {"name": "erpm_erpm", "isDefault": true},
      {"name": "erpm_views", "isDefault": true},
      {"name": "erpm_clicks", "isDefault": false},
      {"name": "erpm_revenue", "isDefault": false},
      {"name": "erpm_l3_dfp_rpm", "isDefault": true},
      {"name": "erpm_l3_dfp_rpm_sqrloss", "isDefault": false},
      {"name": "erpm_l3_dfp_ctr", "isDefault": true},
      {"name": "erpm_l3_dfp_ctr_sqrloss", "isDefault": false},
      {"name": "erpm_l3_dfp_ctr_logloss", "isDefault": false},
      {"name": "erpm_l6_url_rpm", "isDefault": false},
      {"name": "erpm_l6_url_rpm_sqrloss", "isDefault": false},
      {"name": "erpm_l6_url_ctr", "isDefault": false},
      {"name": "erpm_l6_url_ctr_sqrloss", "isDefault": false},
      {"name": "erpm_l6_url_ctr_logloss", "isDefault": false},
      {"name": "erpm_l6_device_rpm", "isDefault": false},
      {"name": "erpm_l6_device_rpm_sqrloss", "isDefault": false},
      {"name": "erpm_l6_device_ctr", "isDefault": false},
      {"name": "erpm_l6_device_ctr_sqrloss", "isDefault": false},
      {"name": "erpm_l6_device_ctr_logloss", "isDefault": false},
      {"name": "erpm_l10_url_rpm", "isDefault": false},
      {"name": "erpm_l10_url_rpm_sqrloss", "isDefault": false},
      {"name": "erpm_l10_url_ctr", "isDefault": false},
      {"name": "erpm_l10_url_ctr_sqrloss", "isDefault": false},
      {"name": "erpm_l10_url_ctr_logloss", "isDefault": false},
      {"name": "erpm_l10_device_rpm", "isDefault": false},
      {"name": "erpm_l10_device_rpm_sqrloss", "isDefault": false},
      {"name": "erpm_l10_device_ctr", "isDefault": false},
      {"name": "erpm_l10_device_ctr_sqrloss", "isDefault": false},
      {"name": "erpm_l10_device_ctr_logloss", "isDefault": false},
      {"name": "erpm_dfp_v1_rpm", "isDefault": false},
      {"name": "erpm_dfp_v1_sqrloss", "isDefault": false},
      {"name": "erpm_dfp_v1_ctr", "isDefault": false},
      {"name": "erpm_dfp_v1_ctr_sqrloss", "isDefault": false},
      {"name": "erpm_dfp_v1_ctr_logloss", "isDefault": false}
    ],
    "defaultDimension" : "none",
    "displayName" : "Erpm"
  },
  "Ad Detail" : {
    "dimensions" : [
      "none",
      "day",
      "hour",
      "adpos",
      "adtitle",
      "adurl",
      "country",
      "pid",
      "advar",
      "url",
      "customer",
      "portfolio",
      "proid",
      "adtag",
      "domain",
      "sourcetag",
      "providerapiid"
    ],
    "metrics" : [
      {"name":"addetailscount","isDefault": true},
      {"name":"addetailsnetbid","isDefault": true}
    ],
    "defaultDimension" : "none",
    "displayName" : "Advertiser"
  },
  "Pla" : {
    "dimensions" : [
      "none",
      "day",
      "hour",
      "article_id",
      "url",
      "canonicalurlhash",
      "image_cropped_image_id",
      "article_title",
      "article_type",
      "article_subtype",
      "basis",
      "basis2",
      "domain",
      "portfolio",
      "article_test_data",
      "article_page_data",
      "article_position",
      "progroup",
      "category_id"
    ],
    "metrics" : [
      {"name":"placount","isDefault": true},
      {"name":"planetbid","isDefault": true}
    ],
    "defaultDimension" : "none",
    "displayName" : "PLA"
  }
}
